simulation/qsim/Contador.msim.vcd
$comment
	File created using the following command:
		vcd file Contador.msim.vcd -direction
$end
$date
	Fri Sep 01 01:10:25 2023
$end
$version
	ModelSim Version 2020.1
$end
$timescale
	1ps
$end

$scope module contador_vhd_vec_tst $end
$var wire 1 ! A6 $end
$var wire 1 " A7 $end
$var wire 1 # B6 $end
$var wire 1 $ B7 $end
$var wire 1 % C6 $end
$var wire 1 & C7 $end
$var wire 1 ' clk50 $end
$var wire 1 ( count_dir $end
$var wire 1 ) D6 $end
$var wire 1 * D7 $end
$var wire 1 + E6 $end
$var wire 1 , E7 $end
$var wire 1 - F6 $end
$var wire 1 . F7 $end
$var wire 1 / G6 $end
$var wire 1 0 G7 $end
$var wire 1 1 reset $end

$scope module i1 $end
$var wire 1 2 gnd $end
$var wire 1 3 vcc $end
$var wire 1 4 unknown $end
$var wire 1 5 devoe $end
$var wire 1 6 devclrn $end
$var wire 1 7 devpor $end
$var wire 1 8 ww_devoe $end
$var wire 1 9 ww_devclrn $end
$var wire 1 : ww_devpor $end
$var wire 1 ; ww_reset $end
$var wire 1 < ww_count_dir $end
$var wire 1 = ww_A7 $end
$var wire 1 > ww_B7 $end
$var wire 1 ? ww_C7 $end
$var wire 1 @ ww_D7 $end
$var wire 1 A ww_E7 $end
$var wire 1 B ww_F7 $end
$var wire 1 C ww_G7 $end
$var wire 1 D ww_A6 $end
$var wire 1 E ww_B6 $end
$var wire 1 F ww_C6 $end
$var wire 1 G ww_D6 $end
$var wire 1 H ww_E6 $end
$var wire 1 I ww_F6 $end
$var wire 1 J ww_G6 $end
$var wire 1 K ww_clk50 $end
$var wire 1 L \clk50~inputclkctrl_INCLK_bus\ [3] $end
$var wire 1 M \clk50~inputclkctrl_INCLK_bus\ [2] $end
$var wire 1 N \clk50~inputclkctrl_INCLK_bus\ [1] $end
$var wire 1 O \clk50~inputclkctrl_INCLK_bus\ [0] $end
$var wire 1 P \clk~clkctrl_INCLK_bus\ [3] $end
$var wire 1 Q \clk~clkctrl_INCLK_bus\ [2] $end
$var wire 1 R \clk~clkctrl_INCLK_bus\ [1] $end
$var wire 1 S \clk~clkctrl_INCLK_bus\ [0] $end
$var wire 1 T \A7~output_o\ $end
$var wire 1 U \B7~output_o\ $end
$var wire 1 V \C7~output_o\ $end
$var wire 1 W \D7~output_o\ $end
$var wire 1 X \E7~output_o\ $end
$var wire 1 Y \F7~output_o\ $end
$var wire 1 Z \G7~output_o\ $end
$var wire 1 [ \A6~output_o\ $end
$var wire 1 \ \B6~output_o\ $end
$var wire 1 ] \C6~output_o\ $end
$var wire 1 ^ \D6~output_o\ $end
$var wire 1 _ \E6~output_o\ $end
$var wire 1 ` \F6~output_o\ $end
$var wire 1 a \G6~output_o\ $end
$var wire 1 b \count_dir~input_o\ $end
$var wire 1 c \reset~input_o\ $end
$var wire 1 d \clk50~input_o\ $end
$var wire 1 e \clk50~inputclkctrl_outclk\ $end
$var wire 1 f \freq_reducer:cont[20]~q\ $end
$var wire 1 g \Equal0~5_combout\ $end
$var wire 1 h \Add0~0_combout\ $end
$var wire 1 i \freq_reducer:cont[0]~q\ $end
$var wire 1 j \Add0~1\ $end
$var wire 1 k \Add0~2_combout\ $end
$var wire 1 l \freq_reducer:cont[1]~q\ $end
$var wire 1 m \Add0~3\ $end
$var wire 1 n \Add0~4_combout\ $end
$var wire 1 o \freq_reducer:cont[2]~q\ $end
$var wire 1 p \Add0~5\ $end
$var wire 1 q \Add0~6_combout\ $end
$var wire 1 r \freq_reducer:cont[3]~q\ $end
$var wire 1 s \Add0~7\ $end
$var wire 1 t \Add0~8_combout\ $end
$var wire 1 u \freq_reducer:cont[4]~q\ $end
$var wire 1 v \Add0~9\ $end
$var wire 1 w \Add0~10_combout\ $end
$var wire 1 x \freq_reducer:cont[5]~q\ $end
$var wire 1 y \Add0~11\ $end
$var wire 1 z \Add0~12_combout\ $end
$var wire 1 { \Equal0~0_combout\ $end
$var wire 1 | \Equal0~1_combout\ $end
$var wire 1 } \Equal0~2_combout\ $end
$var wire 1 ~ \Equal0~3_combout\ $end
$var wire 1 !! \Equal0~4_combout\ $end
$var wire 1 "! \cont~0_combout\ $end
$var wire 1 #! \freq_reducer:cont[6]~q\ $end
$var wire 1 $! \Add0~13\ $end
$var wire 1 %! \Add0~14_combout\ $end
$var wire 1 &! \freq_reducer:cont[7]~q\ $end
$var wire 1 '! \Add0~15\ $end
$var wire 1 (! \Add0~16_combout\ $end
$var wire 1 )! \cont~1_combout\ $end
$var wire 1 *! \freq_reducer:cont[8]~q\ $end
$var wire 1 +! \Add0~17\ $end
$var wire 1 ,! \Add0~18_combout\ $end
$var wire 1 -! \cont~2_combout\ $end
$var wire 1 .! \freq_reducer:cont[9]~q\ $end
$var wire 1 /! \Add0~19\ $end
$var wire 1 0! \Add0~20_combout\ $end
$var wire 1 1! \freq_reducer:cont[10]~q\ $end
$var wire 1 2! \Add0~21\ $end
$var wire 1 3! \Add0~22_combout\ $end
$var wire 1 4! \freq_reducer:cont[21]~q\ $end
$var wire 1 5! \Add0~41\ $end
$var wire 1 6! \Add0~42_combout\ $end
$var wire 1 7! \cont~9_combout\ $end
$var wire 1 8! \cont~10_combout\ $end
$var wire 1 9! \freq_reducer:cont[22]~q\ $end
$var wire 1 :! \Add0~43\ $end
$var wire 1 ;! \Add0~44_combout\ $end
$var wire 1 <! \cont~3_combout\ $end
$var wire 1 =! \cont~4_combout\ $end
$var wire 1 >! \freq_reducer:cont[11]~q\ $end
$var wire 1 ?! \Add0~23\ $end
$var wire 1 @! \Add0~24_combout\ $end
$var wire 1 A! \freq_reducer:cont[12]~q\ $end
$var wire 1 B! \Add0~25\ $end
$var wire 1 C! \Add0~26_combout\ $end
$var wire 1 D! \freq_reducer:cont[13]~q\ $end
$var wire 1 E! \Add0~27\ $end
$var wire 1 F! \Add0~28_combout\ $end
$var wire 1 G! \cont~5_combout\ $end
$var wire 1 H! \freq_reducer:cont[14]~q\ $end
$var wire 1 I! \Add0~29\ $end
$var wire 1 J! \Add0~30_combout\ $end
$var wire 1 K! \freq_reducer:cont[15]~q\ $end
$var wire 1 L! \Add0~31\ $end
$var wire 1 M! \Add0~32_combout\ $end
$var wire 1 N! \freq_reducer:cont[16]~q\ $end
$var wire 1 O! \Add0~33\ $end
$var wire 1 P! \Add0~34_combout\ $end
$var wire 1 Q! \freq_reducer:cont[17]~q\ $end
$var wire 1 R! \Add0~35\ $end
$var wire 1 S! \Add0~36_combout\ $end
$var wire 1 T! \cont~6_combout\ $end
$var wire 1 U! \freq_reducer:cont[18]~q\ $end
$var wire 1 V! \Add0~37\ $end
$var wire 1 W! \Add0~38_combout\ $end
$var wire 1 X! \cont~7_combout\ $end
$var wire 1 Y! \cont~8_combout\ $end
$var wire 1 Z! \freq_reducer:cont[19]~q\ $end
$var wire 1 [! \Add0~39\ $end
$var wire 1 \! \Add0~40_combout\ $end
$var wire 1 ]! \Equal0~6_combout\ $end
$var wire 1 ^! \clk~0_combout\ $end
$var wire 1 _! \clk~feeder_combout\ $end
$var wire 1 `! \clk~q\ $end
$var wire 1 a! \clk~clkctrl_outclk\ $end
$var wire 1 b! \count[0]~1_combout\ $end
$var wire 1 c! \Add2~0_combout\ $end
$var wire 1 d! \Add1~1\ $end
$var wire 1 e! \Add1~3\ $end
$var wire 1 f! \Add1~4_combout\ $end
$var wire 1 g! \LessThan0~1_combout\ $end
$var wire 1 h! \LessThan1~1_combout\ $end
$var wire 1 i! \LessThan0~2_combout\ $end
$var wire 1 j! \count~16_combout\ $end
$var wire 1 k! \Add2~3\ $end
$var wire 1 l! \Add2~4_combout\ $end
$var wire 1 m! \count~18_combout\ $end
$var wire 1 n! \Add2~5\ $end
$var wire 1 o! \Add2~6_combout\ $end
$var wire 1 p! \Add1~5\ $end
$var wire 1 q! \Add1~6_combout\ $end
$var wire 1 r! \count~17_combout\ $end
$var wire 1 s! \Add2~7\ $end
$var wire 1 t! \Add2~8_combout\ $end
$var wire 1 u! \Add1~7\ $end
$var wire 1 v! \Add1~8_combout\ $end
$var wire 1 w! \count~14_combout\ $end
$var wire 1 x! \count~15_combout\ $end
$var wire 1 y! \LessThan0~0_combout\ $end
$var wire 1 z! \count~25_combout\ $end
$var wire 1 {! \Add1~0_combout\ $end
$var wire 1 |! \count~26_combout\ $end
$var wire 1 }! \count[0]~3_combout\ $end
$var wire 1 ~! \count[0]~_emulated_q\ $end
$var wire 1 !" \count[0]~2_combout\ $end
$var wire 1 "" \Add2~1\ $end
$var wire 1 #" \Add2~2_combout\ $end
$var wire 1 $" \count~23_combout\ $end
$var wire 1 %" \Add1~2_combout\ $end
$var wire 1 &" \count~24_combout\ $end
$var wire 1 '" \count[1]~5_combout\ $end
$var wire 1 (" \count[1]~_emulated_q\ $end
$var wire 1 )" \count[1]~4_combout\ $end
$var wire 1 *" \LessThan1~0_combout\ $end
$var wire 1 +" \Add2~9\ $end
$var wire 1 ," \Add2~10_combout\ $end
$var wire 1 -" \count~21_combout\ $end
$var wire 1 ." \Add1~9\ $end
$var wire 1 /" \Add1~10_combout\ $end
$var wire 1 0" \count~22_combout\ $end
$var wire 1 1" \count[5]~9_combout\ $end
$var wire 1 2" \count[5]~_emulated_q\ $end
$var wire 1 3" \count[5]~8_combout\ $end
$var wire 1 4" \Add2~11\ $end
$var wire 1 5" \Add2~12_combout\ $end
$var wire 1 6" \count~19_combout\ $end
$var wire 1 7" \Add1~11\ $end
$var wire 1 8" \Add1~12_combout\ $end
$var wire 1 9" \count~20_combout\ $end
$var wire 1 :" \count[6]~7_combout\ $end
$var wire 1 ;" \count[6]~_emulated_q\ $end
$var wire 1 <" \count[6]~6_combout\ $end
$var wire 1 =" \Div0|auto_generated|divider|divider|add_sub_3_result_int[1]~1\ $end
$var wire 1 >" \Div0|auto_generated|divider|divider|add_sub_3_result_int[2]~3\ $end
$var wire 1 ?" \Div0|auto_generated|divider|divider|add_sub_3_result_int[3]~4_combout\ $end
$var wire 1 @" \Div0|auto_generated|divider|divider|add_sub_3_result_int[3]~5\ $end
$var wire 1 A" \Div0|auto_generated|divider|divider|add_sub_3_result_int[4]~6_combout\ $end
$var wire 1 B" \Div0|auto_generated|divider|divider|StageOut[18]~27_combout\ $end
$var wire 1 C" \Div0|auto_generated|divider|divider|StageOut[18]~26_combout\ $end
$var wire 1 D" \Div0|auto_generated|divider|divider|add_sub_3_result_int[2]~2_combout\ $end
$var wire 1 E" \Div0|auto_generated|divider|divider|StageOut[17]~29_combout\ $end
$var wire 1 F" \Div0|auto_generated|divider|divider|StageOut[17]~28_combout\ $end
$var wire 1 G" \Div0|auto_generated|divider|divider|add_sub_3_result_int[1]~0_combout\ $end
$var wire 1 H" \Div0|auto_generated|divider|divider|StageOut[16]~31_combout\ $end
$var wire 1 I" \Div0|auto_generated|divider|divider|StageOut[16]~30_combout\ $end
$var wire 1 J" \Div0|auto_generated|divider|divider|StageOut[15]~33_combout\ $end
$var wire 1 K" \Div0|auto_generated|divider|divider|StageOut[15]~32_combout\ $end
$var wire 1 L" \Div0|auto_generated|divider|divider|add_sub_4_result_int[1]~1\ $end
$var wire 1 M" \Div0|auto_generated|divider|divider|add_sub_4_result_int[2]~3\ $end
$var wire 1 N" \Div0|auto_generated|divider|divider|add_sub_4_result_int[3]~5\ $end
$var wire 1 O" \Div0|auto_generated|divider|divider|add_sub_4_result_int[4]~7_cout\ $end
$var wire 1 P" \Div0|auto_generated|divider|divider|add_sub_4_result_int[5]~8_combout\ $end
$var wire 1 Q" \Div0|auto_generated|divider|divider|StageOut[23]~47_combout\ $end
$var wire 1 R" \Div0|auto_generated|divider|divider|add_sub_4_result_int[3]~4_combout\ $end
$var wire 1 S" \Div0|auto_generated|divider|divider|StageOut[23]~34_combout\ $end
$var wire 1 T" \Div0|auto_generated|divider|divider|StageOut[22]~48_combout\ $end
$var wire 1 U" \Div0|auto_generated|divider|divider|add_sub_4_result_int[2]~2_combout\ $end
$var wire 1 V" \Div0|auto_generated|divider|divider|StageOut[22]~35_combout\ $end
$var wire 1 W" \Div0|auto_generated|divider|divider|add_sub_4_result_int[1]~0_combout\ $end
$var wire 1 X" \Div0|auto_generated|divider|divider|StageOut[21]~37_combout\ $end
$var wire 1 Y" \Div0|auto_generated|divider|divider|StageOut[21]~36_combout\ $end
$var wire 1 Z" \Div0|auto_generated|divider|divider|StageOut[20]~39_combout\ $end
$var wire 1 [" \Div0|auto_generated|divider|divider|StageOut[20]~38_combout\ $end
$var wire 1 \" \Div0|auto_generated|divider|divider|add_sub_5_result_int[1]~1\ $end
$var wire 1 ]" \Div0|auto_generated|divider|divider|add_sub_5_result_int[2]~3\ $end
$var wire 1 ^" \Div0|auto_generated|divider|divider|add_sub_5_result_int[3]~5\ $end
$var wire 1 _" \Div0|auto_generated|divider|divider|add_sub_5_result_int[4]~7_cout\ $end
$var wire 1 `" \Div0|auto_generated|divider|divider|add_sub_5_result_int[5]~8_combout\ $end
$var wire 1 a" \Div0|auto_generated|divider|divider|add_sub_5_result_int[3]~4_combout\ $end
$var wire 1 b" \Div0|auto_generated|divider|divider|StageOut[28]~40_combout\ $end
$var wire 1 c" \Div0|auto_generated|divider|divider|StageOut[28]~46_combout\ $end
$var wire 1 d" \Div0|auto_generated|divider|divider|StageOut[27]~49_combout\ $end
$var wire 1 e" \Div0|auto_generated|divider|divider|add_sub_5_result_int[2]~2_combout\ $end
$var wire 1 f" \Div0|auto_generated|divider|divider|StageOut[27]~41_combout\ $end
$var wire 1 g" \Div0|auto_generated|divider|divider|StageOut[26]~42_combout\ $end
$var wire 1 h" \Div0|auto_generated|divider|divider|add_sub_5_result_int[1]~0_combout\ $end
$var wire 1 i" \Div0|auto_generated|divider|divider|StageOut[26]~43_combout\ $end
$var wire 1 j" \Div0|auto_generated|divider|divider|StageOut[25]~45_combout\ $end
$var wire 1 k" \Div0|auto_generated|divider|divider|StageOut[25]~44_combout\ $end
$var wire 1 l" \Div0|auto_generated|divider|divider|add_sub_6_result_int[1]~1_cout\ $end
$var wire 1 m" \Div0|auto_generated|divider|divider|add_sub_6_result_int[2]~3_cout\ $end
$var wire 1 n" \Div0|auto_generated|divider|divider|add_sub_6_result_int[3]~5_cout\ $end
$var wire 1 o" \Div0|auto_generated|divider|divider|add_sub_6_result_int[4]~7_cout\ $end
$var wire 1 p" \Div0|auto_generated|divider|divider|add_sub_6_result_int[5]~8_combout\ $end
$var wire 1 q" \Mux0~0_combout\ $end
$var wire 1 r" \Mux1~0_combout\ $end
$var wire 1 s" \Mux2~0_combout\ $end
$var wire 1 t" \Mux3~0_combout\ $end
$var wire 1 u" \Mux4~0_combout\ $end
$var wire 1 v" \Mux5~0_combout\ $end
$var wire 1 w" \Mux6~0_combout\ $end
$var wire 1 x" \Mod0|auto_generated|divider|divider|add_sub_3_result_int[1]~1\ $end
$var wire 1 y" \Mod0|auto_generated|divider|divider|add_sub_3_result_int[2]~3\ $end
$var wire 1 z" \Mod0|auto_generated|divider|divider|add_sub_3_result_int[3]~5\ $end
$var wire 1 {" \Mod0|auto_generated|divider|divider|add_sub_3_result_int[4]~6_combout\ $end
$var wire 1 |" \Mod0|auto_generated|divider|divider|StageOut[24]~38_combout\ $end
$var wire 1 }" \Mod0|auto_generated|divider|divider|add_sub_3_result_int[3]~4_combout\ $end
$var wire 1 ~" \Mod0|auto_generated|divider|divider|StageOut[24]~39_combout\ $end
$var wire 1 !# \Mod0|auto_generated|divider|divider|add_sub_3_result_int[2]~2_combout\ $end
$var wire 1 "# \Mod0|auto_generated|divider|divider|StageOut[23]~41_combout\ $end
$var wire 1 ## \Mod0|auto_generated|divider|divider|StageOut[23]~40_combout\ $end
$var wire 1 $# \Mod0|auto_generated|divider|divider|add_sub_3_result_int[1]~0_combout\ $end
$var wire 1 %# \Mod0|auto_generated|divider|divider|StageOut[22]~43_combout\ $end
$var wire 1 &# \Mod0|auto_generated|divider|divider|StageOut[22]~42_combout\ $end
$var wire 1 '# \Mod0|auto_generated|divider|divider|StageOut[21]~44_combout\ $end
$var wire 1 (# \Mod0|auto_generated|divider|divider|StageOut[21]~45_combout\ $end
$var wire 1 )# \Mod0|auto_generated|divider|divider|add_sub_4_result_int[1]~1\ $end
$var wire 1 *# \Mod0|auto_generated|divider|divider|add_sub_4_result_int[2]~3\ $end
$var wire 1 +# \Mod0|auto_generated|divider|divider|add_sub_4_result_int[3]~5\ $end
$var wire 1 ,# \Mod0|auto_generated|divider|divider|add_sub_4_result_int[4]~7\ $end
$var wire 1 -# \Mod0|auto_generated|divider|divider|add_sub_4_result_int[5]~8_combout\ $end
$var wire 1 .# \Mod0|auto_generated|divider|divider|add_sub_4_result_int[4]~6_combout\ $end
$var wire 1 /# \Mod0|auto_generated|divider|divider|StageOut[32]~46_combout\ $end
$var wire 1 0# \Mod0|auto_generated|divider|divider|StageOut[32]~67_combout\ $end
$var wire 1 1# \Mod0|auto_generated|divider|divider|add_sub_4_result_int[3]~4_combout\ $end
$var wire 1 2# \Mod0|auto_generated|divider|divider|StageOut[31]~47_combout\ $end
$var wire 1 3# \Mod0|auto_generated|divider|divider|StageOut[31]~68_combout\ $end
$var wire 1 4# \Mod0|auto_generated|divider|divider|StageOut[30]~69_combout\ $end
$var wire 1 5# \Mod0|auto_generated|divider|divider|add_sub_4_result_int[2]~2_combout\ $end
$var wire 1 6# \Mod0|auto_generated|divider|divider|StageOut[30]~48_combout\ $end
$var wire 1 7# \Mod0|auto_generated|divider|divider|StageOut[29]~49_combout\ $end
$var wire 1 8# \Mod0|auto_generated|divider|divider|add_sub_4_result_int[1]~0_combout\ $end
$var wire 1 9# \Mod0|auto_generated|divider|divider|StageOut[29]~50_combout\ $end
$var wire 1 :# \Mod0|auto_generated|divider|divider|StageOut[28]~51_combout\ $end
$var wire 1 ;# \Mod0|auto_generated|divider|divider|StageOut[28]~52_combout\ $end
$var wire 1 <# \Mod0|auto_generated|divider|divider|add_sub_5_result_int[1]~1\ $end
$var wire 1 =# \Mod0|auto_generated|divider|divider|add_sub_5_result_int[2]~3\ $end
$var wire 1 ># \Mod0|auto_generated|divider|divider|add_sub_5_result_int[3]~5\ $end
$var wire 1 ?# \Mod0|auto_generated|divider|divider|add_sub_5_result_int[4]~7\ $end
$var wire 1 @# \Mod0|auto_generated|divider|divider|add_sub_5_result_int[5]~9\ $end
$var wire 1 A# \Mod0|auto_generated|divider|divider|add_sub_5_result_int[6]~10_combout\ $end
$var wire 1 B# \Mod0|auto_generated|divider|divider|add_sub_5_result_int[1]~0_combout\ $end
$var wire 1 C# \Mod0|auto_generated|divider|divider|StageOut[36]~60_combout\ $end
$var wire 1 D# \Mod0|auto_generated|divider|divider|StageOut[36]~59_combout\ $end
$var wire 1 E# \Mod0|auto_generated|divider|divider|StageOut[35]~54_combout\ $end
$var wire 1 F# \Mod0|auto_generated|divider|divider|StageOut[35]~53_combout\ $end
$var wire 1 G# \Mod0|auto_generated|divider|divider|add_sub_6_result_int[1]~1\ $end
$var wire 1 H# \Mod0|auto_generated|divider|divider|add_sub_6_result_int[2]~2_combout\ $end
$var wire 1 I# \Mod0|auto_generated|divider|divider|StageOut[40]~64_combout\ $end
$var wire 1 J# \Mod0|auto_generated|divider|divider|add_sub_5_result_int[5]~8_combout\ $end
$var wire 1 K# \Mod0|auto_generated|divider|divider|StageOut[40]~55_combout\ $end
$var wire 1 L# \Mod0|auto_generated|divider|divider|add_sub_5_result_int[4]~6_combout\ $end
$var wire 1 M# \Mod0|auto_generated|divider|divider|StageOut[39]~56_combout\ $end
$var wire 1 N# \Mod0|auto_generated|divider|divider|StageOut[39]~65_combout\ $end
$var wire 1 O# \Mod0|auto_generated|divider|divider|StageOut[38]~66_combout\ $end
$var wire 1 P# \Mod0|auto_generated|divider|divider|add_sub_5_result_int[3]~4_combout\ $end
$var wire 1 Q# \Mod0|auto_generated|divider|divider|StageOut[38]~57_combout\ $end
$var wire 1 R# \Mod0|auto_generated|divider|divider|StageOut[37]~70_combout\ $end
$var wire 1 S# \Mod0|auto_generated|divider|divider|add_sub_5_result_int[2]~2_combout\ $end
$var wire 1 T# \Mod0|auto_generated|divider|divider|StageOut[37]~58_combout\ $end
$var wire 1 U# \Mod0|auto_generated|divider|divider|add_sub_6_result_int[2]~3\ $end
$var wire 1 V# \Mod0|auto_generated|divider|divider|add_sub_6_result_int[3]~5\ $end
$var wire 1 W# \Mod0|auto_generated|divider|divider|add_sub_6_result_int[4]~7_cout\ $end
$var wire 1 X# \Mod0|auto_generated|divider|divider|add_sub_6_result_int[5]~9_cout\ $end
$var wire 1 Y# \Mod0|auto_generated|divider|divider|add_sub_6_result_int[6]~11_cout\ $end
$var wire 1 Z# \Mod0|auto_generated|divider|divider|add_sub_6_result_int[7]~12_combout\ $end
$var wire 1 [# \Mod0|auto_generated|divider|divider|StageOut[44]~62_combout\ $end
$var wire 1 \# \Mod0|auto_generated|divider|divider|add_sub_6_result_int[3]~4_combout\ $end
$var wire 1 ]# \Mod0|auto_generated|divider|divider|StageOut[45]~63_combout\ $end
$var wire 1 ^# \Mod0|auto_generated|divider|divider|add_sub_6_result_int[1]~0_combout\ $end
$var wire 1 _# \Mod0|auto_generated|divider|divider|StageOut[43]~61_combout\ $end
$var wire 1 `# \Mux7~0_combout\ $end
$var wire 1 a# \Mux8~0_combout\ $end
$var wire 1 b# \Mux9~0_combout\ $end
$var wire 1 c# \Mux10~0_combout\ $end
$var wire 1 d# \Mux11~0_combout\ $end
$var wire 1 e# \Mux12~0_combout\ $end
$var wire 1 f# \Mux13~0_combout\ $end
$var wire 1 g# count [6] $end
$var wire 1 h# count [5] $end
$var wire 1 i# count [4] $end
$var wire 1 j# count [3] $end
$var wire 1 k# count [2] $end
$var wire 1 l# count [1] $end
$var wire 1 m# count [0] $end
$var wire 1 n# \ALT_INV_Mux13~0_combout\ $end
$var wire 1 o# \ALT_INV_Mux6~0_combout\ $end
$upscope $end
$upscope $end
$enddefinitions $end
#0
$dumpvars
0!
0"
0#
0$
0%
0&
0'
1(
0)
0*
0+
0,
0-
0.
1/
10
01
02
13
x4
15
16
17
18
19
1:
0;
1<
0=
0>
0?
0@
0A
0B
1C
0D
0E
0F
0G
0H
0I
1J
0K
0T
0U
0V
0W
0X
0Y
1Z
0[
0\
0]
0^
0_
0`
1a
1b
0c
0d
0e
0f
0g
1h
0i
0j
0k
0l
1m
0n
0o
0p
0q
0r
1s
0t
0u
0v
0w
0x
1y
0z
0{
0|
0}
0~
0!!
0"!
0#!
0$!
0%!
0&!
1'!
0(!
0)!
0*!
0+!
0,!
0-!
0.!
1/!
00!
01!
02!
03!
04!
05!
06!
17!
08!
09!
1:!
0;!
1<!
0=!
0>!
1?!
0@!
0A!
0B!
0C!
0D!
1E!
0F!
0G!
0H!
0I!
0J!
0K!
1L!
0M!
0N!
0O!
0P!
0Q!
1R!
0S!
0T!
0U!
0V!
0W!
1X!
0Y!
0Z!
1[!
0\!
0]!
0^!
0_!
0`!
0a!
0b!
1c!
0d!
1e!
0f!
1g!
0h!
1i!
1j!
1k!
1l!
0m!
0n!
1o!
0p!
0q!
0r!
1s!
1t!
1u!
0v!
0w!
0x!
1y!
1z!
1{!
1|!
1}!
0~!
0!"
0""
1#"
1$"
0%"
0&"
0'"
0("
0)"
0*"
0+"
1,"
1-"
0."
0/"
00"
01"
02"
03"
14"
15"
16"
17"
08"
09"
0:"
0;"
0<"
0="
1>"
0?"
0@"
1A"
0B"
0C"
1D"
0E"
0F"
1G"
0H"
0I"
0J"
0K"
0L"
1M"
0N"
1O"
1P"
0Q"
0R"
0S"
0T"
1U"
0V"
1W"
0X"
0Y"
0Z"
0["
0\"
1]"
0^"
1_"
1`"
0a"
0b"
0c"
0d"
1e"
0f"
0g"
1h"
0i"
0j"
0k"
0l"
1m"
0n"
1o"
1p"
0q"
0r"
0s"
0t"
0u"
0v"
0w"
0x"
1y"
0z"
1{"
0|"
0}"
0~"
1!#
0"#
0##
1$#
0%#
0&#
0'#
0(#
0)#
1*#
0+#
1,#
1-#
1.#
0/#
00#
01#
02#
03#
04#
15#
06#
07#
18#
09#
0:#
0;#
0<#
1=#
0>#
1?#
0@#
1A#
1B#
0C#
0D#
0E#
0F#
0G#
1H#
0I#
1J#
0K#
1L#
0M#
0N#
0O#
0P#
0Q#
0R#
1S#
0T#
1U#
0V#
1W#
0X#
1Y#
1Z#
0[#
0\#
0]#
1^#
0_#
0`#
0a#
0b#
0c#
0d#
0e#
0f#
1n#
1o#
xg#
xh#
0i#
0j#
0k#
xl#
xm#
1L
1M
1N
0O
1P
1Q
1R
0S
$end
#10000
1'
1K
1d
1O
1e
#20000
0'
0K
0d
0O
0e
#30000
1'
1K
1d
1O
1e
#40000
0'
0K
0d
0O
0e
#50000
1'
1K
1d
1O
1e
#60000
0'
0K
0d
0O
0e
#70000
1'
1K
1d
1O
1e
#80000
0'
0K
0d
0O
0e
#90000
1'
1K
1d
1O
1e
#100000
0'
0K
0d
0O
0e
#110000
1'
1K
1d
1O
1e
#120000
0'
0K
0d
0O
0e
#130000
1'
1K
1d
1O
1e
#140000
0'
0K
0d
0O
0e
#150000
1'
1K
1d
1O
1e
#160000
0'
0K
0d
0O
0e
#170000
1'
1K
1d
1O
1e
#180000
0'
0K
0d
0O
0e
#190000
1'
1K
1d
1O
1e
#200000
0'
0K
0d
0O
0e
#210000
1'
1K
1d
1O
1e
#220000
0'
0K
0d
0O
0e
#230000
1'
1K
1d
1O
1e
#240000
0'
0K
0d
0O
0e
#250000
1'
1K
1d
1O
1e
#260000
0'
0K
0d
0O
0e
#270000
1'
1K
1d
1O
1e
#280000
0'
0K
0d
0O
0e
#290000
1'
1K
1d
1O
1e
#300000
0'
0K
0d
0O
0e
#310000
1'
1K
1d
1O
1e
#320000
0'
0K
0d
0O
0e
#330000
1'
1K
1d
1O
1e
#340000
0'
0K
0d
0O
0e
#350000
1'
1K
1d
1O
1e
#360000
0'
0K
0d
0O
0e
#370000
1'
1K
1d
1O
1e
#380000
0'
0K
0d
0O
0e
#390000
1'
1K
1d
1O
1e
#400000
0'
0K
0d
0O
0e
#410000
1'
1K
1d
1O
1e
#420000
0'
0K
0d
0O
0e
#430000
1'
1K
1d
1O
1e
#440000
0'
0K
0d
0O
0e
#450000
1'
1K
1d
1O
1e
#460000
0'
0K
0d
0O
0e
#470000
1'
1K
1d
1O
1e
#480000
0'
0K
0d
0O
0e
#490000
1'
1K
1d
1O
1e
#500000
0'
0K
0d
0O
0e
#510000
1'
1K
1d
1O
1e
#520000
0'
0K
0d
0O
0e
#530000
1'
1K
1d
1O
1e
#540000
0'
0K
0d
0O
0e
#550000
1'
1K
1d
1O
1e
#560000
0'
0K
0d
0O
0e
#570000
1'
1K
1d
1O
1e
#580000
0'
0K
0d
0O
0e
#590000
1'
1K
1d
1O
1e
#600000
0'
0K
0d
0O
0e
#610000
1'
1K
1d
1O
1e
#620000
0'
0K
0d
0O
0e
#630000
1'
1K
1d
1O
1e
#640000
0'
0K
0d
0O
0e
#650000
1'
1K
1d
1O
1e
#660000
0'
0K
0d
0O
0e
#670000
1'
1K
1d
1O
1e
#680000
0'
0K
0d
0O
0e
#690000
1'
1K
1d
1O
1e
#700000
0'
0K
0d
0O
0e
#710000
1'
1K
1d
1O
1e
#720000
0'
0K
0d
0O
0e
#730000
1'
1K
1d
1O
1e
#740000
0'
0K
0d
0O
0e
#750000
1'
1K
1d
1O
1e
#760000
0'
0K
0d
0O
0e
#770000
1'
1K
1d
1O
1e
#780000
0'
0K
0d
0O
0e
#790000
1'
1K
1d
1O
1e
#800000
0'
0K
0d
0O
0e
#810000
1'
1K
1d
1O
1e
#820000
0'
0K
0d
0O
0e
#830000
1'
1K
1d
1O
1e
#840000
0'
0K
0d
0O
0e
#850000
1'
1K
1d
1O
1e
#860000
0'
0K
0d
0O
0e
#870000
1'
1K
1d
1O
1e
#880000
0'
0K
0d
0O
0e
#890000
1'
1K
1d
1O
1e
#900000
0'
0K
0d
0O
0e
#910000
1'
1K
1d
1O
1e
#920000
0'
0K
0d
0O
0e
#930000
1'
1K
1d
1O
1e
#940000
0'
0K
0d
0O
0e
#950000
1'
1K
1d
1O
1e
#960000
0'
0K
0d
0O
0e
#970000
1'
1K
1d
1O
1e
#980000
0'
0K
0d
0O
0e
#990000
1'
1K
1d
1O
1e
