simulation/qsim/Contador.msim.vcd
$comment
	File created using the following command:
		vcd file Contador.msim.vcd -direction
$end
$date
	Fri Aug 18 09:20:59 2023
$end
$version
	ModelSim Version 2020.1
$end
$timescale
	1ps
$end

$scope module contador_vhd_vec_tst $end
$var wire 1 ! A6 $end
$var wire 1 " A7 $end
$var wire 1 # B6 $end
$var wire 1 $ B7 $end
$var wire 1 % C6 $end
$var wire 1 & C7 $end
$var wire 1 ' clk $end
$var wire 1 ( D6 $end
$var wire 1 ) D7 $end
$var wire 1 * E6 $end
$var wire 1 + E7 $end
$var wire 1 , F6 $end
$var wire 1 - F7 $end
$var wire 1 . G6 $end
$var wire 1 / G7 $end
$var wire 1 0 reset $end

$scope module i1 $end
$var wire 1 1 gnd $end
$var wire 1 2 vcc $end
$var wire 1 3 unknown $end
$var wire 1 4 devoe $end
$var wire 1 5 devclrn $end
$var wire 1 6 devpor $end
$var wire 1 7 ww_devoe $end
$var wire 1 8 ww_devclrn $end
$var wire 1 9 ww_devpor $end
$var wire 1 : ww_clk $end
$var wire 1 ; ww_reset $end
$var wire 1 < ww_A7 $end
$var wire 1 = ww_B7 $end
$var wire 1 > ww_C7 $end
$var wire 1 ? ww_D7 $end
$var wire 1 @ ww_E7 $end
$var wire 1 A ww_F7 $end
$var wire 1 B ww_G7 $end
$var wire 1 C ww_A6 $end
$var wire 1 D ww_B6 $end
$var wire 1 E ww_C6 $end
$var wire 1 F ww_D6 $end
$var wire 1 G ww_E6 $end
$var wire 1 H ww_F6 $end
$var wire 1 I ww_G6 $end
$var wire 1 J \A7~output_o\ $end
$var wire 1 K \B7~output_o\ $end
$var wire 1 L \C7~output_o\ $end
$var wire 1 M \D7~output_o\ $end
$var wire 1 N \E7~output_o\ $end
$var wire 1 O \F7~output_o\ $end
$var wire 1 P \G7~output_o\ $end
$var wire 1 Q \A6~output_o\ $end
$var wire 1 R \B6~output_o\ $end
$var wire 1 S \C6~output_o\ $end
$var wire 1 T \D6~output_o\ $end
$var wire 1 U \E6~output_o\ $end
$var wire 1 V \F6~output_o\ $end
$var wire 1 W \G6~output_o\ $end
$var wire 1 X \clk~input_o\ $end
$var wire 1 Y \count[0]~7_combout\ $end
$var wire 1 Z \reset~input_o\ $end
$var wire 1 [ \LessThan0~0_combout\ $end
$var wire 1 \ \count[4]~16\ $end
$var wire 1 ] \count[5]~17_combout\ $end
$var wire 1 ^ \count[5]~18\ $end
$var wire 1 _ \count[6]~19_combout\ $end
$var wire 1 ` \LessThan0~1_combout\ $end
$var wire 1 a \count[0]~8\ $end
$var wire 1 b \count[1]~9_combout\ $end
$var wire 1 c \count[1]~10\ $end
$var wire 1 d \count[2]~11_combout\ $end
$var wire 1 e \count[2]~12\ $end
$var wire 1 f \count[3]~13_combout\ $end
$var wire 1 g \count[3]~14\ $end
$var wire 1 h \count[4]~15_combout\ $end
$var wire 1 i \Div0|auto_generated|divider|divider|add_sub_3_result_int[1]~1\ $end
$var wire 1 j \Div0|auto_generated|divider|divider|add_sub_3_result_int[2]~3\ $end
$var wire 1 k \Div0|auto_generated|divider|divider|add_sub_3_result_int[3]~5\ $end
$var wire 1 l \Div0|auto_generated|divider|divider|add_sub_3_result_int[4]~6_combout\ $end
$var wire 1 m \Div0|auto_generated|divider|divider|StageOut[16]~30_combout\ $end
$var wire 1 n \Div0|auto_generated|divider|divider|add_sub_3_result_int[1]~0_combout\ $end
$var wire 1 o \Div0|auto_generated|divider|divider|StageOut[16]~31_combout\ $end
$var wire 1 p \Div0|auto_generated|divider|divider|StageOut[15]~32_combout\ $end
$var wire 1 q \Div0|auto_generated|divider|divider|StageOut[15]~33_combout\ $end
$var wire 1 r \Div0|auto_generated|divider|divider|add_sub_4_result_int[1]~1\ $end
$var wire 1 s \Div0|auto_generated|divider|divider|add_sub_4_result_int[2]~2_combout\ $end
$var wire 1 t \Div0|auto_generated|divider|divider|StageOut[18]~26_combout\ $end
$var wire 1 u \Div0|auto_generated|divider|divider|add_sub_3_result_int[3]~4_combout\ $end
$var wire 1 v \Div0|auto_generated|divider|divider|StageOut[18]~27_combout\ $end
$var wire 1 w \Div0|auto_generated|divider|divider|StageOut[17]~28_combout\ $end
$var wire 1 x \Div0|auto_generated|divider|divider|add_sub_3_result_int[2]~2_combout\ $end
$var wire 1 y \Div0|auto_generated|divider|divider|StageOut[17]~29_combout\ $end
$var wire 1 z \Div0|auto_generated|divider|divider|add_sub_4_result_int[2]~3\ $end
$var wire 1 { \Div0|auto_generated|divider|divider|add_sub_4_result_int[3]~5\ $end
$var wire 1 | \Div0|auto_generated|divider|divider|add_sub_4_result_int[4]~7_cout\ $end
$var wire 1 } \Div0|auto_generated|divider|divider|add_sub_4_result_int[5]~8_combout\ $end
$var wire 1 ~ \Div0|auto_generated|divider|divider|StageOut[23]~47_combout\ $end
$var wire 1 !! \Div0|auto_generated|divider|divider|add_sub_4_result_int[3]~4_combout\ $end
$var wire 1 "! \Div0|auto_generated|divider|divider|StageOut[23]~34_combout\ $end
$var wire 1 #! \Div0|auto_generated|divider|divider|StageOut[22]~48_combout\ $end
$var wire 1 $! \Div0|auto_generated|divider|divider|StageOut[22]~35_combout\ $end
$var wire 1 %! \Div0|auto_generated|divider|divider|StageOut[21]~36_combout\ $end
$var wire 1 &! \Div0|auto_generated|divider|divider|add_sub_4_result_int[1]~0_combout\ $end
$var wire 1 '! \Div0|auto_generated|divider|divider|StageOut[21]~37_combout\ $end
$var wire 1 (! \Div0|auto_generated|divider|divider|StageOut[20]~38_combout\ $end
$var wire 1 )! \Div0|auto_generated|divider|divider|StageOut[20]~39_combout\ $end
$var wire 1 *! \Div0|auto_generated|divider|divider|add_sub_5_result_int[1]~1\ $end
$var wire 1 +! \Div0|auto_generated|divider|divider|add_sub_5_result_int[2]~3\ $end
$var wire 1 ,! \Div0|auto_generated|divider|divider|add_sub_5_result_int[3]~5\ $end
$var wire 1 -! \Div0|auto_generated|divider|divider|add_sub_5_result_int[4]~7_cout\ $end
$var wire 1 .! \Div0|auto_generated|divider|divider|add_sub_5_result_int[5]~8_combout\ $end
$var wire 1 /! \Div0|auto_generated|divider|divider|StageOut[28]~46_combout\ $end
$var wire 1 0! \Div0|auto_generated|divider|divider|add_sub_5_result_int[3]~4_combout\ $end
$var wire 1 1! \Div0|auto_generated|divider|divider|StageOut[28]~40_combout\ $end
$var wire 1 2! \Div0|auto_generated|divider|divider|StageOut[27]~49_combout\ $end
$var wire 1 3! \Div0|auto_generated|divider|divider|add_sub_5_result_int[2]~2_combout\ $end
$var wire 1 4! \Div0|auto_generated|divider|divider|StageOut[27]~41_combout\ $end
$var wire 1 5! \Div0|auto_generated|divider|divider|StageOut[26]~42_combout\ $end
$var wire 1 6! \Div0|auto_generated|divider|divider|add_sub_5_result_int[1]~0_combout\ $end
$var wire 1 7! \Div0|auto_generated|divider|divider|StageOut[26]~43_combout\ $end
$var wire 1 8! \Div0|auto_generated|divider|divider|StageOut[25]~44_combout\ $end
$var wire 1 9! \Div0|auto_generated|divider|divider|StageOut[25]~45_combout\ $end
$var wire 1 :! \Div0|auto_generated|divider|divider|add_sub_6_result_int[1]~1_cout\ $end
$var wire 1 ;! \Div0|auto_generated|divider|divider|add_sub_6_result_int[2]~3_cout\ $end
$var wire 1 <! \Div0|auto_generated|divider|divider|add_sub_6_result_int[3]~5_cout\ $end
$var wire 1 =! \Div0|auto_generated|divider|divider|add_sub_6_result_int[4]~7_cout\ $end
$var wire 1 >! \Div0|auto_generated|divider|divider|add_sub_6_result_int[5]~8_combout\ $end
$var wire 1 ?! \Mux6~0_combout\ $end
$var wire 1 @! \Mux5~0_combout\ $end
$var wire 1 A! \Mux4~0_combout\ $end
$var wire 1 B! \Mux3~0_combout\ $end
$var wire 1 C! \Mux2~0_combout\ $end
$var wire 1 D! \Mux1~0_combout\ $end
$var wire 1 E! \Mux0~0_combout\ $end
$var wire 1 F! \Mod0|auto_generated|divider|divider|add_sub_3_result_int[1]~1\ $end
$var wire 1 G! \Mod0|auto_generated|divider|divider|add_sub_3_result_int[2]~3\ $end
$var wire 1 H! \Mod0|auto_generated|divider|divider|add_sub_3_result_int[3]~4_combout\ $end
$var wire 1 I! \Mod0|auto_generated|divider|divider|add_sub_3_result_int[3]~5\ $end
$var wire 1 J! \Mod0|auto_generated|divider|divider|add_sub_3_result_int[4]~6_combout\ $end
$var wire 1 K! \Mod0|auto_generated|divider|divider|StageOut[24]~38_combout\ $end
$var wire 1 L! \Mod0|auto_generated|divider|divider|StageOut[24]~39_combout\ $end
$var wire 1 M! \Mod0|auto_generated|divider|divider|StageOut[23]~40_combout\ $end
$var wire 1 N! \Mod0|auto_generated|divider|divider|add_sub_3_result_int[2]~2_combout\ $end
$var wire 1 O! \Mod0|auto_generated|divider|divider|StageOut[23]~41_combout\ $end
$var wire 1 P! \Mod0|auto_generated|divider|divider|StageOut[22]~42_combout\ $end
$var wire 1 Q! \Mod0|auto_generated|divider|divider|add_sub_3_result_int[1]~0_combout\ $end
$var wire 1 R! \Mod0|auto_generated|divider|divider|StageOut[22]~43_combout\ $end
$var wire 1 S! \Mod0|auto_generated|divider|divider|StageOut[21]~44_combout\ $end
$var wire 1 T! \Mod0|auto_generated|divider|divider|StageOut[21]~45_combout\ $end
$var wire 1 U! \Mod0|auto_generated|divider|divider|add_sub_4_result_int[1]~1\ $end
$var wire 1 V! \Mod0|auto_generated|divider|divider|add_sub_4_result_int[2]~3\ $end
$var wire 1 W! \Mod0|auto_generated|divider|divider|add_sub_4_result_int[3]~5\ $end
$var wire 1 X! \Mod0|auto_generated|divider|divider|add_sub_4_result_int[4]~7\ $end
$var wire 1 Y! \Mod0|auto_generated|divider|divider|add_sub_4_result_int[5]~8_combout\ $end
$var wire 1 Z! \Mod0|auto_generated|divider|divider|StageOut[32]~67_combout\ $end
$var wire 1 [! \Mod0|auto_generated|divider|divider|add_sub_4_result_int[4]~6_combout\ $end
$var wire 1 \! \Mod0|auto_generated|divider|divider|StageOut[32]~46_combout\ $end
$var wire 1 ]! \Mod0|auto_generated|divider|divider|StageOut[31]~68_combout\ $end
$var wire 1 ^! \Mod0|auto_generated|divider|divider|add_sub_4_result_int[3]~4_combout\ $end
$var wire 1 _! \Mod0|auto_generated|divider|divider|StageOut[31]~47_combout\ $end
$var wire 1 `! \Mod0|auto_generated|divider|divider|StageOut[30]~69_combout\ $end
$var wire 1 a! \Mod0|auto_generated|divider|divider|add_sub_4_result_int[2]~2_combout\ $end
$var wire 1 b! \Mod0|auto_generated|divider|divider|StageOut[30]~48_combout\ $end
$var wire 1 c! \Mod0|auto_generated|divider|divider|StageOut[29]~49_combout\ $end
$var wire 1 d! \Mod0|auto_generated|divider|divider|add_sub_4_result_int[1]~0_combout\ $end
$var wire 1 e! \Mod0|auto_generated|divider|divider|StageOut[29]~50_combout\ $end
$var wire 1 f! \Mod0|auto_generated|divider|divider|StageOut[28]~51_combout\ $end
$var wire 1 g! \Mod0|auto_generated|divider|divider|StageOut[28]~52_combout\ $end
$var wire 1 h! \Mod0|auto_generated|divider|divider|add_sub_5_result_int[1]~1\ $end
$var wire 1 i! \Mod0|auto_generated|divider|divider|add_sub_5_result_int[2]~3\ $end
$var wire 1 j! \Mod0|auto_generated|divider|divider|add_sub_5_result_int[3]~5\ $end
$var wire 1 k! \Mod0|auto_generated|divider|divider|add_sub_5_result_int[4]~7\ $end
$var wire 1 l! \Mod0|auto_generated|divider|divider|add_sub_5_result_int[5]~9\ $end
$var wire 1 m! \Mod0|auto_generated|divider|divider|add_sub_5_result_int[6]~10_combout\ $end
$var wire 1 n! \Mod0|auto_generated|divider|divider|StageOut[35]~53_combout\ $end
$var wire 1 o! \Mod0|auto_generated|divider|divider|StageOut[35]~54_combout\ $end
$var wire 1 p! \Mod0|auto_generated|divider|divider|add_sub_6_result_int[1]~0_combout\ $end
$var wire 1 q! \Mod0|auto_generated|divider|divider|StageOut[40]~64_combout\ $end
$var wire 1 r! \Mod0|auto_generated|divider|divider|add_sub_5_result_int[5]~8_combout\ $end
$var wire 1 s! \Mod0|auto_generated|divider|divider|StageOut[40]~55_combout\ $end
$var wire 1 t! \Mod0|auto_generated|divider|divider|StageOut[39]~65_combout\ $end
$var wire 1 u! \Mod0|auto_generated|divider|divider|add_sub_5_result_int[4]~6_combout\ $end
$var wire 1 v! \Mod0|auto_generated|divider|divider|StageOut[39]~56_combout\ $end
$var wire 1 w! \Mod0|auto_generated|divider|divider|StageOut[38]~66_combout\ $end
$var wire 1 x! \Mod0|auto_generated|divider|divider|add_sub_5_result_int[3]~4_combout\ $end
$var wire 1 y! \Mod0|auto_generated|divider|divider|StageOut[38]~57_combout\ $end
$var wire 1 z! \Mod0|auto_generated|divider|divider|StageOut[37]~70_combout\ $end
$var wire 1 {! \Mod0|auto_generated|divider|divider|add_sub_5_result_int[2]~2_combout\ $end
$var wire 1 |! \Mod0|auto_generated|divider|divider|StageOut[37]~58_combout\ $end
$var wire 1 }! \Mod0|auto_generated|divider|divider|StageOut[36]~59_combout\ $end
$var wire 1 ~! \Mod0|auto_generated|divider|divider|add_sub_5_result_int[1]~0_combout\ $end
$var wire 1 !" \Mod0|auto_generated|divider|divider|StageOut[36]~60_combout\ $end
$var wire 1 "" \Mod0|auto_generated|divider|divider|add_sub_6_result_int[1]~1\ $end
$var wire 1 #" \Mod0|auto_generated|divider|divider|add_sub_6_result_int[2]~3\ $end
$var wire 1 $" \Mod0|auto_generated|divider|divider|add_sub_6_result_int[3]~5\ $end
$var wire 1 %" \Mod0|auto_generated|divider|divider|add_sub_6_result_int[4]~7_cout\ $end
$var wire 1 &" \Mod0|auto_generated|divider|divider|add_sub_6_result_int[5]~9_cout\ $end
$var wire 1 '" \Mod0|auto_generated|divider|divider|add_sub_6_result_int[6]~11_cout\ $end
$var wire 1 (" \Mod0|auto_generated|divider|divider|add_sub_6_result_int[7]~12_combout\ $end
$var wire 1 )" \Mod0|auto_generated|divider|divider|StageOut[43]~61_combout\ $end
$var wire 1 *" \Mod0|auto_generated|divider|divider|add_sub_6_result_int[2]~2_combout\ $end
$var wire 1 +" \Mod0|auto_generated|divider|divider|StageOut[44]~62_combout\ $end
$var wire 1 ," \Mod0|auto_generated|divider|divider|add_sub_6_result_int[3]~4_combout\ $end
$var wire 1 -" \Mod0|auto_generated|divider|divider|StageOut[45]~63_combout\ $end
$var wire 1 ." \Mux13~0_combout\ $end
$var wire 1 /" \Mux12~0_combout\ $end
$var wire 1 0" \Mux11~0_combout\ $end
$var wire 1 1" \Mux10~0_combout\ $end
$var wire 1 2" \Mux9~0_combout\ $end
$var wire 1 3" \Mux8~0_combout\ $end
$var wire 1 4" \Mux7~0_combout\ $end
$var wire 1 5" count [6] $end
$var wire 1 6" count [5] $end
$var wire 1 7" count [4] $end
$var wire 1 8" count [3] $end
$var wire 1 9" count [2] $end
$var wire 1 :" count [1] $end
$var wire 1 ;" count [0] $end
$var wire 1 <" \ALT_INV_Mux13~0_combout\ $end
$var wire 1 =" \ALT_INV_Mux6~0_combout\ $end
$var wire 1 >" \ALT_INV_reset~input_o\ $end
$upscope $end
$upscope $end
$enddefinitions $end
#0
$dumpvars
1!
1"
0#
0$
0%
0&
0'
0(
0)
0*
0+
0,
0-
0.
0/
00
01
12
x3
14
15
16
17
18
19
0:
0;
1<
0=
0>
0?
0@
0A
0B
1C
0D
0E
0F
0G
0H
0I
1J
0K
0L
0M
0N
0O
0P
1Q
0R
0S
0T
0U
0V
0W
0X
1Y
0Z
1[
0\
0]
1^
0_
0`
0a
0b
1c
0d
0e
0f
1g
0h
0i
1j
0k
1l
0m
1n
0o
0p
0q
0r
1s
0t
0u
0v
0w
1x
0y
1z
0{
1|
1}
0~
0!!
0"!
0#!
0$!
0%!
1&!
0'!
0(!
0)!
0*!
1+!
0,!
1-!
1.!
0/!
00!
01!
02!
13!
04!
05!
16!
07!
08!
09!
0:!
1;!
0<!
1=!
1>!
0?!
0@!
0A!
0B!
0C!
0D!
0E!
0F!
1G!
0H!
0I!
1J!
0K!
0L!
0M!
1N!
0O!
0P!
1Q!
0R!
0S!
0T!
0U!
1V!
0W!
1X!
1Y!
0Z!
1[!
0\!
0]!
0^!
0_!
0`!
1a!
0b!
0c!
1d!
0e!
0f!
0g!
0h!
1i!
0j!
1k!
0l!
1m!
0n!
0o!
1p!
0q!
1r!
0s!
0t!
1u!
0v!
0w!
0x!
0y!
0z!
1{!
0|!
0}!
1~!
0!"
0""
1#"
0$"
1%"
0&"
1'"
1("
0)"
1*"
0+"
0,"
0-"
0."
0/"
00"
01"
02"
03"
04"
1<"
1="
1>"
05"
06"
07"
08"
09"
0:"
0;"
$end
#25000
1'
1:
1X
1;"
0Y
1a
1/"
10"
11"
14"
1b
1W
1T
1S
1R
1I
1F
1E
1D
1.
1(
1%
1#
#50000
0'
0:
0X
#75000
1'
1:
1X
0;"
1:"
0b
0c
18!
1n!
1)"
1Y
0a
0/"
00"
01"
04"
1b
1c
1."
1/"
12"
0p!
1""
1:!
1d
0<"
0;!
0*"
0#"
0d
0W
0T
0S
0R
1,"
0I
0F
0E
0D
1U
1R
0.
0(
0%
0#
0Q
1G
1D
0C
1*
1#
0!
#100000
0'
0:
0X
#125000
1'
1:
1X
1;"
0Y
1a
0[
10"
02"
0b
0c
1d
0U
1S
0G
1E
0*
1%
#150000
0'
0:
0X
#175000
1'
1:
1X
0;"
0:"
19"
0d
1e
1(!
15!
1f!
1}!
1b
1c
08!
0n!
0)"
1Y
0a
1[
00"
12"
0b
0."
0/"
02"
1p!
0""
0:!
1d
0e
1*"
1+"
0~!
1h!
06!
1*!
1f
1<"
03!
0+!
0{!
0i!
1."
10"
11"
14"
0f
0*"
1U
0S
0<"
1x!
10!
1G
0E
0U
0R
1*
0%
1Q
0G
0D
1W
1T
1S
1C
0*
0#
0Q
1I
1F
1E
1!
0C
1.
1(
1%
0!
#200000
0'
0:
0X
#225000
1'
1:
1X
1;"
0Y
1a
01"
13"
04"
1b
0W
1V
0T
0I
1H
0F
0.
1,
0(
#250000
0'
0:
0X
#275000
1'
1:
1X
0;"
1:"
0b
0c
18!
1n!
1)"
1Y
0a
11"
03"
14"
1b
1c
00"
01"
13"
04"
0p!
1""
1:!
0d
1e
1f
1*"
1d
0e
1W
0V
1T
0f
1I
0H
1F
0W
1V
0T
0S
1.
0,
1(
0I
1H
0F
0E
0.
1,
0(
0%
#300000
0'
0:
0X
#325000
1'
1:
1X
1;"
0Y
1a
0[
0."
1/"
10"
11"
03"
1<"
0b
0c
0d
1e
0V
1T
1S
1R
1Q
1f
0H
1F
1E
1D
1C
0,
1(
1%
1#
1!
#350000
0'
0:
0X
#375000
1'
1:
1X
0;"
0:"
09"
18"
0f
0g
1p
1%!
12!
1S!
1c!
1z!
1d
0e
0(!
05!
0f!
0}!
1b
1c
08!
0n!
0)"
1Y
0a
1."
0/"
00"
01"
13"
0<"
0b
10"
11"
03"
14"
1p!
0""
0:!
0d
0*"
0+"
1~!
0h!
16!
0*!
1f
1g
0,"
1$"
1-"
1{!
0d!
1U!
1<!
13!
0&!
1r
1h
0s
0z
0=!
0a!
0V!
0%"
0h
03!
0{!
00"
01"
04"
1;!
1*"
1#"
1V
0T
0S
0R
0Q
1,"
0$"
0<!
1&"
1^!
0>!
1!!
1H
0F
0E
0D
1W
0V
1T
1S
0C
1,
0(
0%
0#
1@!
1A!
1B!
1E!
0'"
1=!
1%"
1I
0H
1F
1E
0!
0W
0T
0S
1.
0,
1(
1%
0&"
1>!
0("
0I
0F
0E
0.
0(
0%
1)"
1+"
0@!
0A!
0B!
0E!
1'"
1P
1M
1L
1K
1("
13"
14"
1B
1?
1>
1=
1/
1)
1&
1$
0)"
0+"
0P
0M
0L
0K
03"
04"
0B
0?
0>
0=
1W
1V
0/
0)
0&
0$
1I
1H
1.
1,
0W
0V
0I
0H
0.
0,
#400000
0'
0:
0X
#425000
1'
1:
1X
1;"
0Y
1a
10"
1b
1S
1E
1%
#450000
0'
0:
0X
#475000
1'
1:
1X
0;"
1:"
0b
0c
18!
1n!
1)"
1Y
0a
00"
1b
1c
11"
0p!
1""
1:!
1d
0;!
0*"
0#"
0d
0S
0,"
1$"
1<!
0E
1T
0%
0=!
0%"
1F
1(
1&"
0>!
1@!
1A!
1B!
1E!
0'"
0("
0)"
0-"
1P
1M
1L
1K
0."
01"
1B
1?
1>
1=
1<"
1/
1)
1&
1$
0T
1Q
0F
1C
0(
1!
#500000
0'
0:
0X
#525000
1'
1:
1X
1;"
0Y
1a
1/"
10"
11"
14"
0b
0c
1d
1W
1T
1S
1R
1I
1F
1E
1D
1.
1(
1%
1#
#550000
0'
0:
0X
#575000
1'
1:
1X
0;"
0:"
19"
0d
1e
1(!
15!
1f!
1}!
1b
1c
08!
0n!
1Y
0a
0/"
00"
01"
04"
0b
1p!
0""
0:!
1d
0e
1*"
0~!
1h!
06!
1*!
0f
0g
1h
13!
1{!
1+"
1f
1g
0*"
1)"
0W
0T
0S
0R
0+"
0h
1."
13"
0I
0F
0E
0D
0<"
0.
0(
0%
0#
1/"
12"
03"
1V
0Q
1H
0V
1U
1R
0C
1,
0H
1G
1D
0!
0,
1*
1#
#600000
0'
0:
0X
#625000
1'
1:
1X
1;"
0Y
1a
10"
02"
1b
0U
1S
0G
1E
0*
1%
#650000
0'
0:
0X
#675000
1'
1:
1X
0;"
1:"
0b
0c
18!
1n!
1Y
0a
00"
12"
1b
1c
0p!
1""
1:!
0d
1e
0f
0g
1*"
0)"
1d
0e
1U
0S
1f
1g
0."
0/"
02"
1+"
1h
1G
0E
1<"
1*
0%
1."
10"
11"
14"
0h
0<"
0U
0R
1Q
0G
0D
1W
1T
1S
1C
0*
0#
0Q
1I
1F
1E
1!
0C
1.
1(
1%
0!
#700000
0'
0:
0X
#725000
1'
1:
1X
1;"
0Y
1a
01"
13"
04"
0b
0c
0d
1e
0W
1V
0T
0f
0g
0I
1H
0F
0.
1,
0(
1h
#750000
0'
0:
0X
#775000
1'
1:
1X
0;"
0:"
09"
08"
17"
0h
1\
0n
1i
1m
1#!
0Q!
1F!
1P!
1`!
1f
1g
0p
0%!
02!
0S!
0c!
0z!
1d
0e
0(!
05!
0f!
0}!
1b
1c
08!
0n!
1Y
0a
11"
03"
14"
0b
1p!
0""
0:!
0d
0*"
1~!
0h!
16!
0*!
0f
1,"
0$"
0{!
1d!
0U!
0<!
03!
1&!
0r
1h
0\
0x!
1j!
1w!
1a!
0N!
0G!
00!
1,!
1/!
1s
0x
0j
1]
1u
0-!
1H!
0u!
0k!
0]
0s
0a!
1-"
13!
1+!
1{!
1i!
0+"
1;!
1*"
1#"
1)"
1W
0V
1T
0,"
1+"
1x!
0j!
10!
0,!
00"
04"
0r!
1l!
0.!
1I
0H
1F
1.
0,
1(
0/!
14!
17!
1?!
0B!
0E!
0m!
1-!
11!
1u!
1k!
01"
13"
14"
0-"
0="
04"
1r!
0l!
1.!
1v!
0w!
1y!
1|!
1!"
0;!
0W
0S
1<!
0*"
0#"
1,"
1/!
01!
04!
07!
0?!
1B!
1E!
1m!
1s!
0I
0E
1W
1V
0T
0P
0M
1="
0.
0%
0J
0s!
0v!
1w!
0y!
0|!
0!"
1;!
0<!
1-"
0,"
1$"
0+"
1I
1H
0F
0B
0?
0W
0<
1.
1,
0(
0/
0)
11"
03"
1*"
1#"
1,"
0$"
0-"
0I
0"
1P
1M
0.
1J
1/"
01"
12"
1-"
0,"
1+"
1B
1?
1<
1/
1)
0-"
0/"
02"
13"
14"
1"
0V
1T
04"
0H
1F
1U
0T
1R
0,
1(
1G
0F
1D
1W
1V
0U
0R
1*
0(
1#
1I
1H
0G
0D
0W
1.
1,
0*
0#
0I
0.
#800000
0'
0:
0X
#825000
1'
1:
1X
1;"
0Y
1a
0."
1/"
10"
11"
03"
1<"
1b
0V
1T
1S
1R
1Q
0H
1F
1E
1D
1C
0,
1(
1%
1#
1!
#850000
0'
0:
0X
#875000
1'
1:
1X
0;"
1:"
0b
0c
18!
1n!
1Y
0a
1."
0/"
00"
01"
13"
0<"
1b
1c
0p!
1""
1:!
1d
0;!
0*"
0#"
0)"
0d
1V
0T
0S
0R
0Q
10"
11"
03"
14"
1,"
0+"
1H
0F
0E
0D
0C
1,
0(
0%
0#
0."
00"
01"
04"
1-"
0!
1<"
1."
1W
0V
1T
1S
0<"
1I
0H
1F
1E
0W
0T
0S
1.
0,
1(
1%
1Q
0I
0F
0E
1C
0.
0(
0%
0Q
1!
0C
0!
#900000
0'
0:
0X
#925000
1'
1:
1X
1;"
0Y
1a
10"
0b
0c
1d
1S
1E
1%
#950000
0'
0:
0X
#975000
1'
1:
1X
0;"
0:"
19"
0d
1e
1(!
15!
1f!
1}!
1b
1c
08!
0n!
1Y
0a
00"
0b
1p!
0""
0:!
1d
0e
1*"
0~!
1h!
06!
1*!
1f
03!
0+!
0{!
0i!
1+"
0f
0*"
1)"
0S
0+"
13"
14"
0x!
1j!
00!
1,!
0E
0%
0-!
0u!
0k!
11"
03"
04"
0r!
1l!
0.!
1W
1V
0/!
05!
1?!
0B!
0E!
0m!
1I
1H
0W
0V
1T
0="
1.
1,
0w!
0}!
1;!
1=!
0I
0H
1F
0.
0,
1(
1>!
1*"
1#"
1%"
0P
0M
0J
0&"
0,"
1+"
0A!
1C!
0B
0?
0<
0/
0)
01"
13"
14"
0-"
1'"
0"
1("
04"
1N
0L
0)"
0+"
1@
0>
1W
1V
0T
1+
0&
0."
03"
1I
1H
0F
0W
1<"
1.
1,
0(
0I
0.
0V
1Q
0H
1C
0,
1!
